<<<<<<< HEAD
-------------------------------------------------------------------------------
Test set: com.citi.trading.strategy.ActiveTradersTest
-------------------------------------------------------------------------------
Tests run: 9, Failures: 0, Errors: 0, Skipped: 0, Time elapsed: 5.823 sec
=======
-------------------------------------------------------------------------------
Test set: com.citi.trading.strategy.ActiveTradersTest
-------------------------------------------------------------------------------
Tests run: 9, Failures: 0, Errors: 0, Skipped: 0, Time elapsed: 12.049 sec
>>>>>>> 87faeb70049a3aab29439cdecc59a9d8e0382853
