<<<<<<< HEAD
-------------------------------------------------------------------------------
Test set: com.citi.trading.strategy.TraderTest
-------------------------------------------------------------------------------
Tests run: 15, Failures: 0, Errors: 0, Skipped: 0, Time elapsed: 0.16 sec
=======
-------------------------------------------------------------------------------
Test set: com.citi.trading.strategy.TraderTest
-------------------------------------------------------------------------------
Tests run: 15, Failures: 0, Errors: 0, Skipped: 0, Time elapsed: 0.343 sec
>>>>>>> 87faeb70049a3aab29439cdecc59a9d8e0382853
